[
  {
    "customerId": "697",
    "totalDebt":100000,
    "totalOrder":200000,
    "usedDebt":15000,
    "payedOrder":120000
  },
  {
    "customerId": "5779",
    "totalDebt":100000,
    "totalOrder":300000,
    "usedDebt":25000,
    "payedOrder":20000
  },
  {
    "customerId": "13616",
    "totalDebt":100000,
    "totalOrder":350000,
    "usedDebt":45000,
    "payedOrder":32000
  },
  {
    "customerId": "17657",
    "totalDebt":100000,
    "totalOrder":120000,
    "usedDebt":85000,
    "payedOrder":12000
  },
  {
    "customerId": "21202",
    "totalDebt":100000,
    "totalOrder":120000,
    "usedDebt":55000,
    "payedOrder":90000
  },
  {
    "customerId": "36396",
    "totalDebt":100000,
    "totalOrder":120000,
    "usedDebt":55000,
    "payedOrder":90000
  },
  {
    "customerId": "42916",
    "totalDebt":100000,
    "totalOrder":120000,
    "usedDebt":55000,
    "payedOrder":90000
  },
  {
    "customerId": "44047",
    "totalDebt":100000,
    "totalOrder":120000,
    "usedDebt":55000,
    "payedOrder":90000
  },
  {
    "customerId": "46301",
    "totalDebt":100000,
    "totalOrder":120000,
    "usedDebt":55000,
    "payedOrder":90000
  },
  {
    "customerId": "51779",
    "totalDebt":100000,
    "totalOrder":120000,
    "usedDebt":55000,
    "payedOrder":90000
  },
  {
    "customerId": "52435",
    "totalDebt":100000,
    "totalOrder":120000,
    "usedDebt":55000,
    "payedOrder":90000
  },
  {
    "customerId": "56605",
    "totalDebt":100000,
    "totalOrder":120000,
    "usedDebt":55000,
    "payedOrder":90000
  }
]
