[
  {
    "username":"X000338",
    "salesOrg":"SA20",
    "distributionChannel":"DO",
    "division":"RI",
    "divisionName":"Riello Trade",
    "customer":"2500",
    "land":"IT",
    "landName":"Italia",
    "customerName":"PEZZUTO OSVALDO & C. S.R.L.",
    "city":"LECCE",
    "postZone":"73100",
    "region":"LE", "regionName":"Lecce",
    "address":"VIALE DELLA REPUBBLICA 43",
    "codiceFiscale":"",
    "partitaIva":"02520610755"
  },
  {
    "username":"X000338",
    "salesOrg":"SA20",
    "distributionChannel":"DO",
    "division":"RI", "divisionName":"Riello Trade",
    "customer":"3215",
    "land":"IT",
    "landName":"Italia",
    "customerName":"TERMOIMPIANTI S.N.C. DI FORTE ORONZ",
    "city":"MAGLIE",
    "postZone":"73024",
    "region":"LE",
    "regionName":"Lecce",
    "address":"VIA UMBERTO I 89",
    "codiceFiscale":" ",
    "partitaIva":"02734260751"
  },
  {
    "username":"X000338",
    "salesOrg":"SA20",
    "distributionChannel":"DO",
    "division":"RI",
    "divisionName":"Riello Trade",
    "customer":"5838",
    "land":"IT",
    "landName":"Italia",
    "customerName":"SENSITIVO FRANCESCO",
    "city":"SURBO",
    "postZone":"73010",
    "region":"LE",
    "regionName":"Lecce",
    "address":"VIA F. PETRARCA 19",
    "codiceFiscale":"SNSFNC72L11E054D",
    "partitaIva":"03336820752"
  },
  {
    "username":"X000338",
    "salesOrg":"SA20",
    "distributionChannel":"DO",
    "division":"RI",
    "divisionName":"Riello Trade",
    "customer":"10128",
    "land":"IT",
    "landName":"Italia",
    "customerName":"ZEPPOLA LUIGI E C. S.N.C.",
    "city":"CURSI",
    "postZone":"73020",
    "region":"LE",
    "regionName":"Lecce",
    "address":"VIA PABLO NERUDA .",
    "codiceFiscale":"03405130752",
    "partitaIva":"03405130752"
  },
  {
    "username":"X000338",
    "salesOrg":"SA20",
    "distributionChannel":"DO",
    "division":"RI",
    "divisionName":"Riello Trade",
    "customer":"13352",
    "land":"IT",
    "landName":"Italia",
    "regionName":"Lecce",
    "customerName":"C C B I S.R.L.",
    "city":"GALATONE",
    "postZone":"73044",
    "region":"LE",
    "address":"TORRENTE, 35 .",
    "codiceFiscale":"GRCMCN60T48D863Y",
    "partitaIva":"04004270759"
  },
  {
    "username":"X000338",
    "salesOrg":"SA20",
    "distributionChannel":"DO",
    "division":"RI",
    "divisionName":"Riello Trade",
    "customer":"14204",
    "land":"IT",
    "landName":"Italia",
    "regionName":"Lecce",
    "customerName":"SALENTO CLIMA SRL",
    "city":"LECCE",
    "postZone":"73100",
    "region":"LE",
    "address":"VIA GAETANO ARGENTO 40",
    "codiceFiscale":"",
    "partitaIva":"03210540757"
  },
  {
    "username":"X000338",
    "salesOrg":"SA20",
    "distributionChannel":"DO",
    "division":"RI",
    "divisionName":"Riello Trade",
    "customer":"14409",
    "land":"IT",
    "landName":"Italia",
    "regionName":"Lecce",
    "customerName":"IDEALCLIM DI WALTER D'ELIA",
    "city":"GUAGNANO",
    "postZone":"73010",
    "region":"LE",
    "address":"VIA LIBERTA' 5",
    "codiceFiscale":"DLEWTR65E21A514E",
    "partitaIva":"03185490756"
  },
  {
    "username":"X000338",
    "salesOrg":"SA20",
    "distributionChannel":"DO",
    "division":"RI",
    "divisionName":"Riello Trade",
    "customer":"15157",
    "land":"IT",
    "landName":"Italia",
    "regionName":"Lecce",
    "customerName":"SERGI FRANCESCO",
    "city":"CURSI",
    "postZone":"73020",
    "region":"LE",
    "address":"UGO MAROTTA,30 .",
    "codiceFiscale":"SRGFNC73R03D223T",
    "partitaIva":"04009580756"
  },
  {
    "username":"X000338",
    "salesOrg":"SA20",
    "distributionChannel":"DO",
    "division":"RI",
    "divisionName":"Riello Trade",
    "customer":"16946",
    "land":"IT",
    "landName":"Italia",
    "regionName":"Lecce",
    "customerName":"SYSTEM IMPIANTI 2000 S.R.L.",
    "city":"MARTANO",
    "postZone":"73025",
    "region":"LE",
    "address":"VIA ZIMBALO SNC",
    "codiceFiscale":" ",
    "partitaIva":"03112090752"
  },
  {
    "username":"X000338",
    "salesOrg":"SA20",
    "distributionChannel":"DO",
    "division":"RI",
    "divisionName":"Riello Trade",
    "customer":"22158",
    "land":"IT",
    "landName":"Italia",
    "regionName":"Lecce",
    "customerName":"MELCORE LUIGI",
    "city":"SAN DONATO DI LECCE",
    "postZone":"73010",
    "region":"LE",
    "address":"VIA Roma 69",
    "codiceFiscale":"MLCLGU68H11H826I",
    "partitaIva":"03037050758"
  },
  {
    "username":"X000338",
    "salesOrg":"SA20",
    "distributionChannel":"DO",
    "division":"RI",
    "divisionName":"Riello Trade",
    "customer":"22867",
    "land":"IT",
    "landName":"Italia",
    "customerName":"TOTO GIUSEPPE",
    "city":"CURSI",
    "postZone":"73020",
    "region":"LE",
    "regionName":"Lecce",
    "address":"VIA TANARO 3",
    "codiceFiscale":"TTOGPP63R27D223A",
    "partitaIva":"03602680757"
  },
  {
    "username":"X000338",
    "salesOrg":"SA20",
    "distributionChannel":"DO",
    "division":"RI",
    "divisionName":"Riello Trade",
    "customer":"40546",
    "land":"IT",
    "landName":"Italia",
    "customerName":"GESTIMP S.R.L.",
    "city":"GALATONE",
    "postZone":"73044",
    "region":"LE",
    "regionName":"Lecce",
    "address":"VIA L SPAGNA 29/A",
    "codiceFiscale":" ",
    "partitaIva":"04193780758"
  },
  {
    "username":"X000338",
    "salesOrg":"SA20",
    "distributionChannel":"DO",
    "division":"RI",
    "divisionName":"Riello Trade",
    "customer":"43560",
    "land":"IT",
    "landName":"Italia",
    "customerName":"M&D di Manca Fernando",
    "city":"NARDO'",
    "postZone":"73048",
    "region":"LE",
     "regionName":"Lecce",
    "address":"rismondi 27",
    "codiceFiscale":"MNCFNN61A24F842F",
    "partitaIva":"04026890758"
  },
  {
    "username":"X000338",
    "salesOrg":"SA20",
    "distributionChannel":"DO",
    "division":"RI",
    "divisionName":"Riello Trade",
    "customer":"45306",
    "land":"IT",
     "landName":"Italia",
    "customerName":"natale francesco",
    "city":"LECCE",
    "postZone":"73100",
    "region":"LE",
    "regionName":"Lecce",
    "address":"libertini 50",
    "codiceFiscale":"NTLFNC34E13A662U",
    "partitaIva":" "
  },
  {
    "username":"X000338",
    "salesOrg":"SA20",
    "distributionChannel":"DO",
    "division":"RI",
    "divisionName":"Riello Trade",
    "customer":"54419",
    "land":"IT",
    "landName":"Italia",
    "customerName":"STEFANIZZI SRL",
    "city":"SOGLIANO CAVOUR",
    "postZone":"73010",
    "region":"LE",
    "regionName":"Lecce",
    "address":"LARGO CASTELLO 7",
    "codiceFiscale":"STFNRS77D62D862C",
    "partitaIva":"04470120751"
  },
  {
    "username":"X000338",
    "salesOrg":"SA20",
    "distributionChannel":"DO",
    "division":"RI",
    "divisionName":"Riello Trade",
    "customer":"54493",
    "land":"IT",
    "landName":"Italia",
    "customerName":"2G di Greco Giovanni",
    "city":"CARPIGNANO SALENTINO",
    "postZone":"73020",
    "region":"LE",
    "regionName":"Lecce",
    "address":"caduti del lavoro sn",
    "codiceFiscale":"GRCGNN88B15I549H",
    "partitaIva":"04384120756"
  },
  {
    "username":"X000338",
    "salesOrg":"SA20",
    "distributionChannel":"DO",
    "division":"RI",
    "divisionName":"Riello Trade",
    "customer":"56659",
    "land":"IT",
    "landName":"Italia",
    "customerName":"S.I.TEC di TRULLI ANTONIO",
    "city":"SURBO",
    "postZone":"73010",
    "region":"LE",
    "regionName":"Lecce",
    "address":"Via Piave 55",
    "codiceFiscale":"04494930755",
    "partitaIva":"04494930755"
  },
  {
    "username":"X000338",
    "salesOrg":"SA20",
    "distributionChannel":"DO",
    "division":"RI",
    "divisionName":"Riello Trade",
    "customer":"58366",
    "land":"IT",
    "landName":"Italia",
    "customerName":"Termocomfort di Tamborino Domi",
    "city":"LECCE",
    "postZone":"73100",
    "region":"LE",
    "regionName":"Lecce",
    "address":"Michele Laporta 5",
    "codiceFiscale":"TMBDNK84C29Z112L",
    "partitaIva":"04530240755"
  },
  {
    "username":"X000338",
    "salesOrg":"SA20",
    "distributionChannel":"DO",
    "division":"RI",
    "divisionName":"Riello Trade",
    "customer":"58760",
    "land":"IT",
    "landName":"Italia",
    "customerName":"Serafini Giuseppe",
    "city":"GALATINA",
    "postZone":"73013",
    "region":"LE",
    "regionName":"Lecce",
    "address":"Monte Bianco 12",
    "codiceFiscale":"SRFGPP76H08D862C",
    "partitaIva":"04197780754"
  },
  {
    "username":"X000338",
    "salesOrg":"SA20",
    "distributionChannel":"DO",
    "division":"RI",
    "divisionName":"Riello Trade",
    "customer":"59857",
    "land":"IT",
    "landName":"Italia",
    "customerName":"Marengo impianti di Marengo ra",
    "city":"SURBO",
    "postZone":"73010",
    "region":"LE",
    "regionName":"Lecce",
    "address":"Roma 99",
    "codiceFiscale":"MRNRFL53T28L011E",
    "partitaIva":"04608700755"
  },
  {
    "username":"X000338",
    "salesOrg":"SA20",
    "distributionChannel":"DO",
    "division":"RI",
    "divisionName":"Riello Trade",
    "customer":"61939",
    "land":"IT",
    "landName":"Italia",
    "customerName":"caretto diego",
    "city":"SURBO",
    "postZone":"73010",
    "region":"LE", "regionName":"Lecce",
    "address":"roma 39",
    "codiceFiscale":"CRTDGI77H05E506S",
    "partitaIva":"04608720753"
  },
  {
    "username":"X000338",
    "salesOrg":"SA20",
    "distributionChannel":"DO",
    "division":"RI",
     "divisionName":"Riello Trade",
    "customer":"61983",
    "land":"IT",
    "landName":"Italia",
    "customerName":"GRUPPO VINCENTI SRL",
    "city":"CUTROFIANO",
    "postZone":"73020",
    "region":"LE", "regionName":"Lecce",
    "address":"VIA DEI CAVAMONTI 10",
    "codiceFiscale":" ",
    "partitaIva":"04108520752"
  },
  {
    "username":"X000338",
    "salesOrg":"SA20",
    "distributionChannel":"DO",
    "division":"RI",
    "divisionName":"Riello Trade",
    "customer":"62212",
    "land":"IT",
    "landName":"Italia",
    "customerName":"S.A.F. di GARGIULIO STEFANO",
    "city":"SURBO",
    "postZone":"73010",
    "region":"LE",
    "regionName":"Lecce",
    "address":"dei messapi 31",
    "codiceFiscale":"GRGSFN73R06E506K",
    "partitaIva":"04019810755"
  },
  {
    "username":"X000338",
    "salesOrg":"SA20",
    "distributionChannel":"DO",
    "division":"RI",
    "divisionName":"Riello Trade",
    "customer":"62244",
    "land":"IT",
    "landName":"Italia",
    "customerName":"termoelettrica greco srls",
    "city":"CAMPI SALENTINA",
    "postZone":"73012",
    "region":"LE",
    "regionName":"Lecce",
    "address":"via g.matteotti 12",
    "codiceFiscale":"GRCMNL79M16B506N",
    "partitaIva":"04556710756"
  },
  {
    "username":"X000338",
    "salesOrg":"SA20",
    "distributionChannel":"DO",
    "division":"RI",
    "divisionName":"Riello Trade",
    "customer":"63973",
    "land":"IT",
    "landName":"Italia",
    "customerName":"FABRIKA SRL",
    "city":"SOLETO",
    "postZone":"73010",
    "region":"LE",
     "regionName":"Lecce",
    "address":"S.P 362   KM 13 SN",
    "codiceFiscale":"DMTNTN77H23C978Q",
    "partitaIva":"04099050751"
  },
  {
    "username":"X000338",
    "salesOrg":"SA20",
    "distributionChannel":"DO",
    "division":"RI",
    "divisionName":"Riello Trade",
    "customer":"64243",
    "land":"IT",
    "landName":"Italia",
    "customerName":"Idromarket di Colelli Tullio &",
    "city":"PORTO CESAREO",
    "postZone":"73010",
    "region":"LE",
    "regionName":"Lecce",
    "address":"Via Garibaldi 120",
    "codiceFiscale":"CLLTLL70L01F842E",
    "partitaIva":"03532240755"
  },
  {
    "username":"X000338",
    "salesOrg":"SA20",
    "distributionChannel":"DO",
    "division":"RI",
    "divisionName":"Riello Trade",
    "customer":"64343",
    "land":"IT",
    "landName":"Italia",
    "customerName":"AGRISTELLA di d'adamo p.& c. s",
    "city":"NARDO'",
    "postZone":"73048",
    "region":"LE",
    "regionName":"Lecce",
    "address":"via Copertino 30",
    "codiceFiscale":"DDMPRN60D42C978O",
    "partitaIva":"02631310758"
  },
  {
    "username":"X000338",
    "salesOrg":"SA20",
    "distributionChannel":"DO",
    "division":"RI",
    "divisionName":"Riello Trade",
    "customer":"64422",
    "land":"IT",
    "landName":"Italia",
    "customerName":"avv. Giuseppe Gravili",
    "city":"LECCE",
    "postZone":"73100",
    "region":"LE",
    "regionName":"Lecce",
    "address":"felice Cavallotti 11",
    "codiceFiscale":"GRVGPP60R01E506R",
    "partitaIva":"01926010750"
  },
  {
    "username":"X000338",
    "salesOrg":"SA20",
    "distributionChannel":"DO",
    "division":"RI",
    "divisionName":"Riello Trade",
    "customer":"65021",
    "land":"IT",
    "landName":"Italia",
    "customerName":"PRimpianti idrotermici di prin",
    "city":"LECCE",
    "postZone":"73100",
    "region":"LE",
    "regionName":"Lecce",
    "address":"cagliari 3",
    "codiceFiscale":"PRNRRT61E29E506I",
    "partitaIva":"04470940752"
  },
  {
    "username":"X000338",
    "salesOrg":"SA20",
    "distributionChannel":"DO",
    "division":"RI",
    "divisionName":"Riello Trade",
    "customer":"65025",
    "land":"IT",
    "landName":"Italia",
    "customerName":"D.S.I. impianti s.r.l.",
    "city":"MARTANO",
    "postZone":"73025",
    "region":"LE",
    "regionName":"Lecce",
    "address":"Persia 74",
    "codiceFiscale":"CRTMSS61L54E979J",
    "partitaIva":"04409430750"
  },
  {
    "username":"X000338",
    "salesOrg":"SA40",
    "distributionChannel":"DO",
    "division":"RI",
    "divisionName":"Riello Trade",
    "customer":"5838",
    "land":"IT",
    "landName":"Italia",
    "customerName":"SENSITIVO FRANCESCO",
    "city":"SURBO",
    "postZone":"73010",
    "region":"LE",
    "regionName":"Lecce",
    "address":"VIA F. PETRARCA 19",
    "codiceFiscale":"SNSFNC72L11E054D",
    "partitaIva":"03336820752"
  },
  {
    "username":"X000338",
    "salesOrg":"SA40",
    "distributionChannel":"DO",
    "division":"RI",
    "divisionName":"Riello Trade",
    "customer":"14204",
    "land":"IT",
    "landName":"Italia",
    "customerName":"SALENTO CLIMA SRL",
    "city":"LECCE",
    "postZone":"73100",
    "region":"LE",
    "regionName":"Lecce",
    "address":"VIA GAETANO ARGENTO 40",
    "codiceFiscale":" ",
    "partitaIva":"03210540757"
  },
  {
    "username":"X000338",
    "salesOrg":"SA40",
    "distributionChannel":"DO",
    "division":"RI",
    "divisionName":"Riello Trade",
    "customer":"16946",
    "land":"IT",
    "landName":"Italia",
    "customerName":"SYSTEM IMPIANTI 2000 S.R.L.",
    "city":"MARTANO",
    "postZone":"73025",
    "region":"LE",
    "regionName":"Lecce",
    "address":"VIA ZIMBALO SNC",
    "codiceFiscale":" ",
    "partitaIva":"03112090752"
  },
  {
    "username":"X000338",
    "salesOrg":"SA40",
    "distributionChannel":"DO",
    "division":"RI",
    "divisionName":"Riello Trade",
    "customer":"22158",
    "land":"IT",
    "landName":"Italia",
    "customerName":"MELCORE LUIGI",
    "city":"SAN DONATO DI LECCE",
    "postZone":"73010",
    "region":"LE",
    "regionName":"Lecce",
    "address":"VIA Roma 69",
    "codiceFiscale":"MLCLGU68H11H826I",
    "partitaIva":"03037050758"
  },
  {
    "username":"X000338",
    "salesOrg":"SA40",
    "distributionChannel":"DO",
    "division":"RI",
    "divisionName":"Riello Trade",
    "customer":"22867",
    "land":"IT",
    "landName":"Italia",
    "customerName":"TOTO GIUSEPPE",
    "city":"CURSI",
    "postZone":"73020",
    "region":"LE",
    "regionName":"Lecce",
    "address":"VIA TANARO 3",
    "codiceFiscale":"TTOGPP63R27D223A",
    "partitaIva":"03602680757"
  },
  {
    "username":"X000338",
    "salesOrg":"SA40",
    "distributionChannel":"DO",
    "division":"RI",
    "divisionName":"Riello Trade",
    "customer":"40546",
    "land":"IT",
    "landName":"Italia",
    "customerName":"GESTIMP S.R.L.",
    "city":"GALATONE",
    "postZone":"73044",
    "region":"LE",
    "regionName":"Lecce",
    "address":"VIA L SPAGNA 29/A",
    "codiceFiscale":" ",
    "partitaIva":"04193780758"
  },
  {
    "username":"X000338",
    "salesOrg":"SA40",
    "distributionChannel":"DO",
    "division":"RI",
    "divisionName":"Riello Trade",
    "customer":"54419",
    "land":"IT",
    "landName":"Italia",
    "customerName":"STEFANIZZI SRL",
    "city":"SOGLIANO CAVOUR",
    "postZone":"73010",
    "region":"LE",
    "regionName":"Lecce",
    "address":"LARGO CASTELLO 7",
    "codiceFiscale":"STFNRS77D62D862C",
    "partitaIva":"04470120751"
  },
  {
    "username":"X000279",
    "salesOrg":"SA10",
    "distributionChannel":"DO",
    "division":"BR",
    "divisionName":"Beretta",
    "customer":"697",
    "land":"IT",
    "landName":"Italia",
    "customerName":"CIDES SRL",
    "city":"ROMA",
    "postZone":"178",
    "region":"RM",
    "regionName":"Roma",
    "address":"VIA MONTE D'ONORIO 32",
    "codiceFiscale":" ",
    "partitaIva":"04627591003"
  },
  {
    "username":"X000279",
    "salesOrg":"SA10",
    "distributionChannel":"DO",
    "division":"BR",
    "divisionName":"Beretta",
    "customer":"5779",
    "land":"IT",
    "landName":"Italia",
    "customerName":"DE BLASI ALESSANDRO",
    "city":"ROMA",
    "postZone":"122",
    "region":"RM",
    "regionName":"Roma",
    "address":"VIA LUDOVICO DE FILIPPI  6",
    "codiceFiscale":"DBLLSN69C30H501X",
    "partitaIva":"09002561000"
  },
  {
    "username":"X000279",
    "salesOrg":"SA20",
    "distributionChannel":"DO",
    "division":"RI",
    "divisionName":"Riello Trade",
    "customer":"697",
    "land":"IT",
     "landName":"Italia",
    "customerName":"CIDES SRL",
    "city":"ROMA",
    "postZone":"178",
    "region":"RM",
    "regionName":"Roma",
    "address":"VIA MONTE D'ONORIO 32",
    "codiceFiscale":" ",
    "partitaIva":"04627591003"
  },
  {
    "username":"X000279",
    "salesOrg":"SA20",
    "distributionChannel":"DO",
    "division":"RI",
    "divisionName":"Riello Trade",
    "customer":"5779",
    "land":"IT",
    "landName":"Italia",
    "customerName":"DE BLASI ALESSANDRO",
    "city":"ROMA",
    "postZone":"122",
    "region":"RM",
    "regionName":"Roma",
    "address":"VIA LUDOVICO DE FILIPPI  6",
    "codiceFiscale":"DBLLSN69C30H501X",
    "partitaIva":"09002561000"
  },
  {
    "username":"X000279",
    "salesOrg":"SA20",
    "distributionChannel":"DO",
    "division":"RI",
    "divisionName":"Riello Trade",
    "customer":"17657",
    "land":"IT",
     "landName":"Italia",
    "customerName":"REVERS IMPIANTI SRL",
    "city":"ROMA",
    "postZone":"166",
    "region":"RM",
    "regionName":"Roma",
    "address":"VIA L. GALASSI 28 .",
    "codiceFiscale":" ",
    "partitaIva":"01107961003"
  },
  {
    "username":"X000279",
    "salesOrg":"SA20",
    "distributionChannel":"DO",
    "division":"RI",
     "divisionName":"Riello Trade",
    "customer":"21202",
    "land":"IT",
    "landName":"Italia",
    "customerName":"S.C. SERVICE S.R.L.",
    "city":"ROMA",
    "postZone":"173",
    "region":"RM",
    "regionName":"Roma",
    "address":"VIA B. ALIMENA 111(C.C.Domus) .",
    "codiceFiscale":" ",
    "partitaIva":"01665520662"
  },
  {
    "username":"X000279",
    "salesOrg":"SA20",
    "distributionChannel":"DO",
    "division":"RI",
    "divisionName":"Riello Trade",
    "customer":"36396",
    "land":"IT",
    "landName":"Italia",
    "customerName":"TECNO EMME SNC DI PAMELA E DINO MAS",
    "city":"ROMA",
    "postZone":"136",
    "region":"RM",
    "regionName":"Roma",
    "address":"VIA VEGEZIO 11-13",
    "codiceFiscale":"05986211000",
    "partitaIva":"05986211000"
  },
  {
    "username":"X000279",
    "salesOrg":"SA20",
    "distributionChannel":"DO",
    "division":"RI",
    "divisionName":"Riello Trade",
    "customer":"42916",
    "land":"IT",
    "landName":"Italia",
    "customerName":"MARCATILI IMPIANTI TECNOLOGICI S.R.",
    "city":"ROMA",
    "postZone":"147",
    "region":"RM",
    "regionName":"Roma",
    "address":"VIA ZANIBERTI FILIPPO 49 .",
    "codiceFiscale":"03784551008",
    "partitaIva":"03784551008"
  },
  {
    "username":"X000279",
    "salesOrg":"SA20",
    "distributionChannel":"DO",
    "division":"RI",
    "divisionName":"Riello Trade",
    "customer":"44047",
    "land":"IT", "landName":"Italia",
    "customerName":"TECNO AIR S.R.L.",
    "city":"ROMA",
    "postZone":"159",
    "region":"RM", "regionName":"Roma",
    "address":"VIA GIUSEPPE MIRRI  6",
    "codiceFiscale":" ",
    "partitaIva":"01742511007"
  },
  {
    "username":"X000279",
    "salesOrg":"SA20",
    "distributionChannel":"DO",
    "division":"RI",
    "divisionName":"Riello Trade",
    "customer":"46301",
    "land":"IT",
    "landName":"Italia",
    "customerName":"MATIR  srl",
    "city":"ROMA",
    "postZone":"125",
    "region":"RM",
    "regionName":"Roma",
    "address":"Giovanni Boldini 75",
    "codiceFiscale":"00888490588",
    "partitaIva":"00940091002"
  },
  {
    "username":"X000279",
    "salesOrg":"SA20",
    "distributionChannel":"DO",
    "division":"RI",
    "divisionName":"Riello Trade",
    "customer":"51779",
    "land":"IT",
    "landName":"Italia",
    "customerName":"SURIANO IMPIANTI SRL",
    "city":"ROMA",
    "postZone":"126",
    "region":"RM",
    "regionName":"Roma",
    "address":"V.LE A. OTTAVIANI 72",
    "codiceFiscale":"08970771005",
    "partitaIva":"08970771005"
  },
  {
    "username":"X000279",
    "salesOrg":"SA20",
    "distributionChannel":"DO",
    "division":"RI",
    "divisionName":"Riello Trade",
    "customer":"52435",
    "land":"IT",
    "landName":"Italia",
    "customerName":"SI.M.AV. Spa",
    "city":"ROMA",
    "postZone":"139",
    "region":"RM",
    "regionName":"Roma",
    "address":"Via Giuseppe Giocchino Belli 86",
    "codiceFiscale":"05891790635",
    "partitaIva":"06203991002"
  },
  {
    "username":"X000279",
    "salesOrg":"SA20",
    "distributionChannel":"DO",
    "division":"RI",
    "divisionName":"Riello Trade",
    "customer":"56605",
    "land":"IT",
    "landName":"Italia",
    "customerName":"MA.CI. SRL",
    "city":"ROMA",
    "postZone":"177",
    "region":"RM",
    "regionName":"Roma",
    "address":"VIA S. TALAMO 13/15",
    "codiceFiscale":"10419941009",
    "partitaIva":"10419941009"
  },
  {
    "username":"X000279",
    "salesOrg":"SA20",
    "distributionChannel":"DO",
    "division":"RI",
    "divisionName":"Riello Trade",
    "customer":"58933",
    "land":"IT",
    "landName":"Italia",
    "customerName":"MANITALIDEA S.p.A.",
    "city":"IVREA",
    "postZone":"10015",
    "region":"TO",
    "regionName":"Torino",
    "address":"Via Giuseppe di Vittorio 29",
    "codiceFiscale":"07124210019",
    "partitaIva":"07124210019"
  },
  {
    "username":"X000279",
    "salesOrg":"SA20",
    "distributionChannel":"DO",
    "division":"RI",
    "divisionName":"Riello Trade",
    "customer":"60990",
    "land":"IT",
    "landName":"Italia",
    "customerName":"S.E.A. srl",
    "city":"ROMA",
    "postZone":"155",
    "region":"RM",
    "regionName":"Roma",
    "address":"via A. Vertunni 76",
    "codiceFiscale":"06810411006",
    "partitaIva":"06810411006"
  },
  {
    "username":"X000279",
    "salesOrg":"SA20",
    "distributionChannel":"DO",
    "division":"RI",
    "divisionName":"Riello Trade",
    "customer":"61139",
    "land":"IT",
    "landName":"Italia",
    "customerName":"INTECO S.p.A.",
    "city":"ROMA",
    "postZone":"196",
    "region":"RM",
     "regionName":"Roma",
    "address":"via Flaminia 388",
    "codiceFiscale":"00979991007",
    "partitaIva":"00979991007"
  },
  {
    "username":"X000279",
    "salesOrg":"SA20",
    "distributionChannel":"DO",
    "division":"RI",
    "divisionName":"Riello Trade",
    "customer":"61190",
    "land":"IT",
    "landName":"Italia",
    "customerName":"Ditta Bonifazi Sandro",
    "city":"ROMA",
    "postZone":"184",
    "region":"RM",
    "regionName":"Roma",
    "address":"VIA LABICANA 58",
    "codiceFiscale":"BNFSDR47A16H501R",
    "partitaIva":"02170690586"
  },
  {
    "username":"X000279",
    "salesOrg":"SA20",
    "distributionChannel":"DO",
    "division":"RI",
    "divisionName":"Riello Trade",
    "customer":"61231",
    "land":"IT",
    "landName":"Italia",
    "customerName":"ROMANA IMPIANTI srl",
    "city":"ROMA",
    "postZone":"135",
    "region":"RM",
    "regionName":"Roma",
    "address":"via della Camilluccia 19",
    "codiceFiscale":"08998831005",
    "partitaIva":"08998831005"
  },
  {
    "username":"X000279",
    "salesOrg":"SA20",
    "distributionChannel":"DO",
    "division":"RI",
    "divisionName":"Riello Trade",
    "customer":"62014",
    "land":"IT",
    "landName":"Italia",
    "customerName":"C.T.S.G. Consulting Tecnical S",
    "city":"ROMA",
    "postZone":"131",
    "region":"RM",
    "regionName":"Roma",
    "address":"Tiburtina 1578",
    "codiceFiscale":"02422770590",
    "partitaIva":"02422770590"
  },
  {
    "username":"X000279",
    "salesOrg":"SA20",
    "distributionChannel":"DO",
    "division":"RI",
    "divisionName":"Riello Trade",
    "customer":"64114",
    "land":"IT",
    "landName":"Italia",
    "customerName":"SUNCITY srl",
    "city":"ROMA",
    "postZone":"192",
    "region":"RM",
    "regionName":"Roma",
    "address":"Tolemaide 28",
    "codiceFiscale":"11721291000",
    "partitaIva":"11721291000"
  },
  {
    "username":"X000279",
    "salesOrg":"SA20",
    "distributionChannel":"DO",
    "division":"RI",
    "divisionName":"Riello Trade",
    "customer":"64234",
    "land":"IT",
    "landName":"Italia",
    "customerName":"TECNOMAVA  srl",
    "city":"ROMA",
    "postZone":"197",
    "region":"RM",
    "regionName":"Roma",
    "address":"via Flaminia 388",
    "codiceFiscale":"13069271008",
    "partitaIva":"13069271008"
  },
  {
    "username":"X000279",
    "salesOrg":"SA20",
    "distributionChannel":"DO",
    "division":"RI",
    "divisionName":"Riello Trade",
    "customer":"64339",
    "land":"IT",
    "landName":"Italia",
    "customerName":"A.P. BIOEDILIZIA srl",
    "city":"ALATRI",
    "postZone":"3011",
    "region":"FR", "regionName":"Frosinone",
    "address":"via dei fiori 4-6",
    "codiceFiscale":"02868860608",
    "partitaIva":"02868860608"
  },
  {
    "username":"X000279",
    "salesOrg":"SA20",
    "distributionChannel":"DO",
    "division":"RI",
    "divisionName":"Riello Trade",
    "customer":"64390",
    "land":"IT",
    "landName":"Italia",
    "customerName":"COMTEC ITALIA srl",
    "city":"TIVOLI",
    "postZone":"10",
    "region":"RM",
    "regionName":"Roma",
    "address":"via Campolimpido 85",
    "codiceFiscale":"08307851009",
    "partitaIva":"08307851009"
  },
  {
    "username":"X000279",
    "salesOrg":"SA20",
    "distributionChannel":"DO",
    "division":"RI",
    "divisionName":"Riello Trade",
    "customer":"64473",
    "land":"IT",
    "landName":"Italia",
    "customerName":"PROSPERI MARCO",
    "city":"CIAMPINO",
    "postZone":"43",
    "region":"RM",
    "regionName":"Roma",
    "address":"via G. MARCONI 21/c",
    "codiceFiscale":"PRSMRC74P08F880A",
    "partitaIva":"04989961000"
  },
  {
    "username":"X000279",
    "salesOrg":"SA20",
    "distributionChannel":"DO",
    "division":"RI",
    "divisionName":"Riello Trade",
    "customer":"64682",
    "land":"IT",
    "landName":"Italia",
    "customerName":"PLANET CLIMA SAS",
    "city":"ROMA",
    "postZone":"168",
    "region":"RM",
    "regionName":"Roma",
    "address":"via Clodomiro Bonfigli 15",
    "codiceFiscale":"07370001005",
    "partitaIva":"07370001005"
  },
  {
    "username":"X000279",
    "salesOrg":"SA20",
    "distributionChannel":"DO",
    "division":"RI",
    "divisionName":"Riello Trade",
    "customer":"64709",
    "land":"IT",
    "landName":"Italia",
    "customerName":"GHELLA S.p.A.",
    "city":"ROMA",
    "postZone":"195",
    "region":"RM",
    "regionName":"Roma",
    "address":"via Pietro Borsari 2/A",
    "codiceFiscale":"00898971007",
    "partitaIva":"00898971007"
  },
  {
    "username":"X000279",
    "salesOrg":"SA20",
    "distributionChannel":"DO",
    "division":"RI",
     "divisionName":"Riello Trade",
    "customer":"65071",
    "land":"IT",
    "landName":"Italia",
    "customerName":"GOWEN srl",
    "city":"ROMA",
    "postZone":"135",
    "region":"RM",
    "regionName":"Roma",
    "address":"via salomone morpurgo 8",
    "codiceFiscale":"09817991004",
    "partitaIva":"09817991004"
  },
  {
    "username":"X000279",
    "salesOrg":"SA20",
    "distributionChannel":"DO",
    "division":"RI",
    "divisionName":"Riello Trade",
    "customer":"65132",
    "land":"IT",
    "landName":"Italia",
    "customerName":"V.I.T.A.L.E. IMPIANTI srls",
    "city":"ROMA",
    "postZone":"128",
    "region":"RM",
    "regionName":"Roma",
    "address":"via Carmelo Maestrini 356",
    "codiceFiscale":"13313801006",
    "partitaIva":"13313801006"
  },
  {
    "username":"X000279",
    "salesOrg":"SA20",
    "distributionChannel":"DO",
    "division":"RI",
    "divisionName":"Riello Trade",
    "customer":"65133",
    "land":"IT",
    "landName":"Italia",
    "customerName":"ARSTEC sas di R. Ugolino",
    "city":"ROMA",
    "postZone":"143",
    "region":"RM",
    "regionName":"Roma",
    "address":"via Abigaille Zanetta 18",
    "codiceFiscale":"07124431003",
    "partitaIva":"07124431003"
  },
  {
    "username":"X000279",
    "salesOrg":"SA40",
    "distributionChannel":"DO",
    "division":"RI",
    "divisionName":"Riello Trade",
    "customer":"5779",
    "land":"IT",
    "landName":"Italia",
    "customerName":"MENDITTO ENRICO",
    "city":"ROMA",
    "postZone":"143",
    "region":"RM",
    "regionName":"Roma",
    "address":"VIA DEGLI ARTIFICIERI 23",
    "codiceFiscale":"MNDNRC84E23H501S",
    "partitaIva":" "
  },
  {
    "username":"X000279",
    "salesOrg":"SA40",
    "distributionChannel":"DO",
    "division":"RI",
    "divisionName":"Riello Trade",
    "customer":"17657",
    "land":"IT",
    "landName":"Italia",
    "customerName":"MENDITTO GIUSEPPE",
    "city":"ROMA",
    "postZone":"147",
    "region":"RM",
    "regionName":"Roma",
    "address":"VIA DEI LINCEI 53",
    "codiceFiscale":"MNDGPP80L14H501L",
    "partitaIva":" "
  },
  {
    "username":"X000279",
    "salesOrg":"SA40",
    "distributionChannel":"DO",
    "division":"RI",
    "divisionName":"Riello Trade",
    "customer":"44047",
    "land":"IT",
    "landName":"Italia",
    "customerName":"SURIANO IMPIANTI SRL",
    "city":"ROMA",
    "postZone":"126",
    "region":"RM",
    "regionName":"Roma",
    "address":"V.LE A. OTTAVIANI 72",
    "codiceFiscale":"08970771005",
    "partitaIva":"08970771005"
  },
  {
    "username":"X000279",
    "salesOrg":"SA40",
    "distributionChannel":"DO",
    "division":"RI",
    "divisionName":"Riello Trade",
    "customer":"51779",
    "land":"IT",
    "landName":"Italia",
    "customerName":"MA.CI. SRL",
    "city":"ROMA",
    "postZone":"177",
    "region":"RM",
    "regionName":"Roma",
    "address":"VIA S. TALAMO 13/15",
    "codiceFiscale":"10419941009",
    "partitaIva":"10419941009"
  },
  {
    "username":"X003238",
    "salesOrg":"SA20",
    "distributionChannel":"DO",
    "division":"TH",
    "divisionName":"Thermital",
    "customer":" ",
    "land":"IT",
    "landName":"Italia",
    "customerName":"JERACE FRANCESCO",
    "city":"RENDE",
    "postZone":"87036",
    "region":"CS",
    "regionName":"Cosenza",
    "address":"Via A. Doria 43",
    "codiceFiscale":"JRCFNC58E31H501T",
    "partitaIva":"03286540780"
  },
  {
    "username":"X003238",
    "salesOrg":"SA20",
    "distributionChannel":"DO",
    "division":"TH",
    "divisionName":"Thermital",
    "customer":" ",
    "land":"IT",
    "landName":"Italia",
    "customerName":"IRRITRIVEL SNC",
    "city":"CORIGLIANO CALABRO",
    "postZone":"87064",
    "region":"CS",
    "regionName":"Cosenza",
    "address":"LAGO DI BAJKAL 11",
    "codiceFiscale":"01488110782",
    "partitaIva":"01488110782"

  }
]
